Exploratory data analysis
…
Load packages

library(dplyr)

Lets use the titanic dataset

library(titanic)

## Warning: package 'titanic' was built under R version 4.1.3

Check the codebook to identify variables

titanic_train %>% as_tibble()

## # A tibble: 891 x 12
##    PassengerId Survived Pclass Name   Sex     Age SibSp Parch Ticket  Fare Cabin
##          <int>    <int>  <int> <chr>  <chr> <dbl> <int> <int> <chr>  <dbl> <chr>
##  1           1        0      3 Braun~ male     22     1     0 A/5 2~  7.25 ""   
##  2           2        1      1 Cumin~ fema~    38     1     0 PC 17~ 71.3  "C85"
##  3           3        1      3 Heikk~ fema~    26     0     0 STON/~  7.92 ""   
##  4           4        1      1 Futre~ fema~    35     1     0 113803 53.1  "C12~
##  5           5        0      3 Allen~ male     35     0     0 373450  8.05 ""   
##  6           6        0      3 Moran~ male     NA     0     0 330877  8.46 ""   
##  7           7        0      1 McCar~ male     54     0     0 17463  51.9  "E46"
##  8           8        0      3 Palss~ male      2     3     1 349909 21.1  ""   
##  9           9        1      3 Johns~ fema~    27     0     2 347742 11.1  ""   
## 10          10        1      2 Nasse~ fema~    14     1     0 237736 30.1  ""   
## # ... with 881 more rows, and 1 more variable: Embarked <chr>
…
Exploratory data analysis

To examine the distribution of a categorical variable, use a bar chart

library(ggplot2)

## Warning: package 'ggplot2' was built under R version 4.1.3

diamonds

## # A tibble: 53,940 x 10
##    carat cut       color clarity depth table price     x     y     z
##    <dbl> <ord>     <ord> <ord>   <dbl> <dbl> <int> <dbl> <dbl> <dbl>
##  1  0.23 Ideal     E     SI2      61.5    55   326  3.95  3.98  2.43
##  2  0.21 Premium   E     SI1      59.8    61   326  3.89  3.84  2.31
##  3  0.23 Good      E     VS1      56.9    65   327  4.05  4.07  2.31
##  4  0.29 Premium   I     VS2      62.4    58   334  4.2   4.23  2.63
##  5  0.31 Good      J     SI2      63.3    58   335  4.34  4.35  2.75
##  6  0.24 Very Good J     VVS2     62.8    57   336  3.94  3.96  2.48
##  7  0.24 Very Good I     VVS1     62.3    57   336  3.95  3.98  2.47
##  8  0.26 Very Good H     SI1      61.9    55   337  4.07  4.11  2.53
##  9  0.22 Fair      E     VS2      65.1    61   337  3.87  3.78  2.49
## 10  0.23 Very Good H     VS1      59.4    61   338  4     4.05  2.39
## # ... with 53,930 more rows
…
summary(diamonds$cut)

##      Fair      Good Very Good   Premium     Ideal 
##      1610      4906     12082     13791     21551

Use skimr::skim to get quick textual info about your variables

library(ggplot2)
diamonds

## # A tibble: 53,940 x 10
##    carat cut       color clarity depth table price     x     y     z
##    <dbl> <ord>     <ord> <ord>   <dbl> <dbl> <int> <dbl> <dbl> <dbl>
##  1  0.23 Ideal     E     SI2      61.5    55   326  3.95  3.98  2.43
##  2  0.21 Premium   E     SI1      59.8    61   326  3.89  3.84  2.31
##  3  0.23 Good      E     VS1      56.9    65   327  4.05  4.07  2.31
##  4  0.29 Premium   I     VS2      62.4    58   334  4.2   4.23  2.63
##  5  0.31 Good      J     SI2      63.3    58   335  4.34  4.35  2.75
##  6  0.24 Very Good J     VVS2     62.8    57   336  3.94  3.96  2.48
##  7  0.24 Very Good I     VVS1     62.3    57   336  3.95  3.98  2.47
##  8  0.26 Very Good H     SI1      61.9    55   337  4.07  4.11  2.53
##  9  0.22 Fair      E     VS2      65.1    61   337  3.87  3.78  2.49
## 10  0.23 Very Good H     VS1      59.4    61   338  4     4.05  2.39
## # ... with 53,930 more rows
…
###Two categorical variables Comparing how color and cut covary, we can simply calculate the number of cases

diamonds %>% 
count(color, cut, sort = TRUE)

## # A tibble: 35 x 3
##    color cut           n
##    <ord> <ord>     <int>
##  1 G     Ideal      4884
##  2 E     Ideal      3903
##  3 F     Ideal      3826
##  4 H     Ideal      3115
##  5 G     Premium    2924
##  6 D     Ideal      2834
##  7 E     Very Good  2400
##  8 H     Premium    2360
##  9 E     Premium    2337
## 10 F     Premium    2331
## # ... with 25 more rows
…
